…
    ## Error in UseMethod("gather_"): no applicable method for 'gather_' applied to an object of class "c('tbl_spark', 'tbl_sql', 'tbl_lazy', 'tbl')"

``` r
mtcars2 %>%
  replyr_moveValuesToRows(nameForNewKeyColumn= 'fact', 
                          nameForNewValueColumn= 'value', 
                          columnsToTakeFrom= colnames(mtcars),
                          nameForNewClassColumn= 'class') %>%
  arrange(car, fact)
```

    ## Source:   query [352 x 4]
    ## Database: spark connection master=local[4] app=sparklyr local=TRUE
    ## 
    ## # A tibble: 352 x 4
    ##     fact         car  value   class
    ##    <chr>       <chr>  <dbl>   <chr>
    ##  1    am AMC Javelin   0.00 numeric
    ##  2  carb AMC Javelin   2.00 numeric
    ##  3   cyl AMC Javelin   8.00 numeric
    ##  4  disp AMC Javelin 304.00 numeric
    ##  5  drat AMC Javelin   3.15 numeric
    ##  6  gear AMC Javelin   3.00 numeric
    ##  7    hp AMC Javelin 150.00 numeric
    ##  8   mpg AMC Javelin  15.20 numeric
    ##  9  qsec AMC Javelin  17.30 numeric
    ## 10    vs AMC Javelin   0.00 numeric
    ## # ... with 342 more rows
…
