…
Once you accept you are going to make copies (which is not part of all systems, but in my opinion is a part of `R`) then you should take advantage of the fact you are going to make copies. In particular you should land, materialize, or reify the results of complicated user expressions as actual data columns (i.e., propagate data forward, not propagate code forward). Doing this wastes some space, but can actually be easier to parellize, potentially faster, easier to document, and much easier to debug.

There is no reason to shun code of the form:

``` r
suppressPackageStartupMessages(library("dplyr"))

starwars %>% 
  mutate( want_row = height > mass ) %>%
  filter( want_row ) %>%
  select( -want_row )
```

    ## # A tibble: 58 x 13
    ##                  name height  mass    hair_color  skin_color eye_color
    ##                 <chr>  <int> <dbl>         <chr>       <chr>     <chr>
    ##  1     Luke Skywalker    172    77         blond        fair      blue
    ##  2              C-3PO    167    75          <NA>        gold    yellow
    ##  3              R2-D2     96    32          <NA> white, blue       red
    ##  4        Darth Vader    202   136          none       white    yellow
    ##  5        Leia Organa    150    49         brown       light     brown
    ##  6          Owen Lars    178   120   brown, grey       light      blue
    ##  7 Beru Whitesun lars    165    75         brown       light      blue
    ##  8              R5-D4     97    32          <NA>  white, red       red
    ##  9  Biggs Darklighter    183    84         black       light     brown
    ## 10     Obi-Wan Kenobi    182    77 auburn, white        fair blue-gray
    ## # ... with 48 more rows, and 7 more variables: birth_year <dbl>,
    ## #   gender <chr>, homeworld <chr>, species <chr>, films <list>,
    ## #   vehicles <list>, starships <list>

And say you really *need* to write the more succinct:

``` r
starwars %>% 
  filter( height > mass )
```

    ## # A tibble: 58 x 13
    ##                  name height  mass    hair_color  skin_color eye_color
    ##                 <chr>  <int> <dbl>         <chr>       <chr>     <chr>
    ##  1     Luke Skywalker    172    77         blond        fair      blue
    ##  2              C-3PO    167    75          <NA>        gold    yellow
    ##  3              R2-D2     96    32          <NA> white, blue       red
    ##  4        Darth Vader    202   136          none       white    yellow
    ##  5        Leia Organa    150    49         brown       light     brown
    ##  6          Owen Lars    178   120   brown, grey       light      blue
    ##  7 Beru Whitesun lars    165    75         brown       light      blue
    ##  8              R5-D4     97    32          <NA>  white, red       red
    ##  9  Biggs Darklighter    183    84         black       light     brown
    ## 10     Obi-Wan Kenobi    182    77 auburn, white        fair blue-gray
    ## # ... with 48 more rows, and 7 more variables: birth_year <dbl>,
    ## #   gender <chr>, homeworld <chr>, species <chr>, films <list>,
    ## #   vehicles <list>, starships <list>
…
To help demonstrate and explore the expressive power of standard evaluation interfaces I am distributing a new small `R` package called [`seplyr`](https://github.com/WinVector/seplyr) (standard evaluation dplyr). `seplyr` is based on `dplyr`/`rlang`/`tidyeval` and is a thin wrapper that exposes equivalent standard evaluation interfaces for some of the more fundamental `dplyr` verbs ( `group_by()`, `arrange()`, `rename()`, `select()`, and `distinct()` ) and adds some of its own advanced verbs. It is similar to `dplyr`'s now-deprecated "SE verbs", but with a more array and list oriented interface (de-emphasizing use of "`...`" in function arguments).

For example, we can take some of the code from the [`dplyr` 0.7.0 announcement](https://blog.rstudio.org/2017/06/13/dplyr-0-7-0/):

``` r
my_var <- quo(homeworld)
# or my_var <- rlang::sym("homeworld")

starwars %>%
  group_by(!!my_var) %>%
  summarise_at(vars(height:mass), mean, na.rm = TRUE)
```

    ## # A tibble: 49 x 3
    ##         homeworld   height  mass
    ##             <chr>    <dbl> <dbl>
    ##  1       Alderaan 176.3333  64.0
    ##  2    Aleen Minor  79.0000  15.0
    ##  3         Bespin 175.0000  79.0
    ##  4     Bestine IV 180.0000 110.0
    ##  5 Cato Neimoidia 191.0000  90.0
    ##  6          Cerea 198.0000  82.0
    ##  7       Champala 196.0000   NaN
    ##  8      Chandrila 150.0000   NaN
    ##  9   Concord Dawn 183.0000  79.0
    ## 10       Corellia 175.0000  78.5
    ## # ... with 39 more rows
…
``` r
# install.packages("seplyr")
library("seplyr")

my_var <- "homeworld"
summary_vars <- c("height", "mass")

starwars %>%
  select_se( c(my_var, summary_vars) ) %>%
  group_by_se( my_var ) %>%
  summarise_all( mean, na.rm = TRUE )
```

    ## # A tibble: 49 x 3
    ##         homeworld   height  mass
    ##             <chr>    <dbl> <dbl>
    ##  1       Alderaan 176.3333  64.0
    ##  2    Aleen Minor  79.0000  15.0
    ##  3         Bespin 175.0000  79.0
    ##  4     Bestine IV 180.0000 110.0
    ##  5 Cato Neimoidia 191.0000  90.0
    ##  6          Cerea 198.0000  82.0
    ##  7       Champala 196.0000   NaN
    ##  8      Chandrila 150.0000   NaN
    ##  9   Concord Dawn 183.0000  79.0
    ## 10       Corellia 175.0000  78.5
    ## # ... with 39 more rows
…
datasets::mtcars %>%
  tibble::rownames_to_column('CarName') %>%
  select_se(c('CarName', 'cyl', 'gear', 'hp', 'wt')) %>%
  add_group_indices(groupingVars = groupingVars,
                    indexColumn = 'groupID') %>%
  add_group_sub_indices(groupingVars = groupingVars,
                       arrangeTerms = c('desc(hp)', 'wt'),
                       orderColumn = 'orderInGroup') %>%
  arrange_se(c('groupID', 'orderInGroup'))
```

    ## # A tibble: 32 x 7
    ##           CarName   cyl  gear    hp    wt groupID orderInGroup
    ##             <chr> <dbl> <dbl> <dbl> <dbl>   <dbl>        <dbl>
    ##  1  Toyota Corona     4     3    97 2.465       1            1
    ##  2     Volvo 142E     4     4   109 2.780       2            1
    ##  3       Merc 230     4     4    95 3.150       2            2
    ##  4     Datsun 710     4     4    93 2.320       2            3
    ##  5      Fiat X1-9     4     4    66 1.935       2            4
    ##  6       Fiat 128     4     4    66 2.200       2            5
    ##  7 Toyota Corolla     4     4    65 1.835       2            6
    ##  8      Merc 240D     4     4    62 3.190       2            7
    ##  9    Honda Civic     4     4    52 1.615       2            8
    ## 10   Lotus Europa     4     5   113 1.513       3            1
    ## # ... with 22 more rows
